<?xml version="1.0" encoding="utf-8"?>
<!-- Generator: Adobe Illustrator 21.0.0, SVG Export Plug-In . SVG Version: 6.00 Build 0)  -->
<svg version="1.1" id="Layer_1" xmlns="http://www.w3.org/2000/svg" xmlns:xlink="http://www.w3.org/1999/xlink" x="0px" y="0px"
	 viewBox="0 0 658.5 97.4" style="enable-background:new 0 0 658.5 97.4;" xml:space="preserve">
<style type="text/css">
	.st0{fill:#04F18C;}
</style>
<g>
	<path d="M189.6,12.7l-29.7,31h14.2v19.9c0,16.6,9.2,27.6,26.3,27.6V75.9c-7.7,0-10.8-4.5-10.8-12.9V43.7h14.2V30h-14.2V12.7z"/>
	<path d="M287.1,56l0,33.8h15.5l0-33.2c0-8.4,3.2-12.9,10.8-12.9V28.4C296.3,28.4,287.1,39.4,287.1,56z"/>
	<path d="M156.1,59.7c0-17.3-14.3-31.3-31.9-31.3c-17.6,0-31.9,14-31.9,31.3c0,17.3,14.3,31.3,31.9,31.3c13.8,0,23.1-5.8,28.7-13
		l-10-8.7c-4.7,5.1-10.6,8.1-18.4,8.1c-8.5,0-14.6-6.2-16.5-12.5h47.7C155.9,64.1,156.1,61.4,156.1,59.7z M108.4,52.9
		c2.5-7.3,9-11.3,15.8-11.3c8.3,0,14.5,5.9,15.9,11.3H108.4z"/>
	<rect x="325.1" y="30.7" width="15.5" height="59"/>
	<path d="M40.5,46.4v13.7h26.2c-4.1,10.1-13,16.1-23.5,16.1c-7.1,0-13.8-2.8-18.7-7.8c-4.9-5-7.6-11.8-7.6-19c0-7.2,2.7-14,7.6-19
		c4.9-5.1,11.6-7.9,18.7-7.9c9.3,0,17.3,4.7,22.1,12.8h16.5C76.3,19.1,61.4,7.7,43.3,7.7C20.2,7.7,1.5,26.4,1.5,49.4
		c0,23.1,18.7,41.8,41.8,41.8s40.9-18.7,40.9-41.8c0-1.4-0.1-3.1-0.1-3.1H40.5z"/>
	<circle class="st0" cx="543.4" cy="82" r="9.2"/>
	<path class="st0" d="M563.5,55.2l0,33.8H579l0-33.2c0-8.4,3.2-12.9,10.8-12.9V27.6C572.8,27.6,563.5,38.6,563.5,55.2z"/>
	<circle cx="332.8" cy="15.2" r="9.2"/>
	<path class="st0" d="M641.5,29.2l0,33.6c0,6.8-5.5,12.2-12.2,12.2h0c-6.8,0-12.2-5.5-12.2-12.2l0-33.6h-15.5l0,33.6
		c0,15.3,12.4,27.7,27.7,27.7h0c15.3,0,27.7-12.4,27.7-27.7l0-33.6H641.5z"/>
	<path d="M528.3,72.5c0-14.3-13.6-17.5-21-19.3c-7.7-1.8-8.7-5-8.7-7.2c0-2.6,2.6-5.1,6.9-5.1c7.2,0,8,6.4,8,6.4h14.4
		c-1.6-12.7-12.1-19-23-19c-10.1,0-21.6,5.7-21.6,17.9c0,9.3,6.5,14.9,13.8,17.3c7,2.3,15.8,2.2,15.8,8.9c0,3.7-2.4,5.8-6.7,5.8
		c-7.2,0-8-7-8-7h-14.4c1.6,13.3,12.1,19.8,23,19.8c10,0,21.5-5.9,21.6-18.5h0C528.3,72.7,528.3,72.6,528.3,72.5
		C528.3,72.6,528.3,72.5,528.3,72.5L528.3,72.5z"/>
	<path d="M471.7,30h-15.5c0,10.9-2.3,19.3-11.7,19.9h-6V9.3h-15.5v80.5h15.5V63.5h6.2L459,89.8h17.7l-16.8-29.9
		C468.3,54.3,471.7,44.3,471.7,30z"/>
	<path d="M381.8,28.4L381.8,28.4c-15.3,0-27.7,12.4-27.7,27.7l0,33.6h15.5l0-33.6c0-6.8,5.5-12.2,12.2-12.2
		c6.8,0,12.2,5.5,12.2,12.2l0,33.6h15.5l0-33.6C409.5,40.8,397.1,28.4,381.8,28.4z"/>
	<path d="M234.9,9.1h-19.3v80.6h19.3c25.5,0,41.8-14.7,41.8-40.3S260.4,9.1,234.9,9.1z M234.6,75.5h-3.6V23.4h3.6
		c17.7,0,26.3,12.9,26.3,26.1C261,62.6,252.4,75.5,234.6,75.5z"/>
</g>
</svg>
