<?xml version="1.0" encoding="utf-8"?>
<!-- Generator: Adobe Illustrator 21.0.0, SVG Export Plug-In . SVG Version: 6.00 Build 0)  -->
<svg version="1.1" id="Layer_1" xmlns="http://www.w3.org/2000/svg" xmlns:xlink="http://www.w3.org/1999/xlink" x="0px" y="0px"
	 viewBox="0 0 96 96" style="enable-background:new 0 0 96 96;" xml:space="preserve">
<style type="text/css">
	.st0{clip-path:url(#SVGID_2_);fill:#04F18C;}
</style>
<g>
	<g>
		<defs>
			<rect id="SVGID_1_" width="96" height="96"/>
		</defs>
		<clipPath id="SVGID_2_">
			<use xlink:href="#SVGID_1_"  style="overflow:visible;"/>
		</clipPath>
		<path class="st0" d="M48,0C21.5,0,0,21.5,0,48s21.5,48,48,48s48-21.5,48-48S74.5,0,48,0 M60.9,32.8c3.3,0,6,2.7,6,6s-2.7,6-6,6
			c-3.3,0-6-2.7-6-6S57.6,32.8,60.9,32.8 M35.1,32.8c3.3,0,6,2.7,6,6s-2.7,6-6,6s-6-2.7-6-6C29.1,35.5,31.8,32.8,35.1,32.8 M48,79.4
			c-17.3,0-31.3-14-31.3-31.3h8C24.7,61,35.1,71.4,48,71.4S71.3,61,71.3,48.1h8C79.3,65.4,65.3,79.4,48,79.4"/>
	</g>
</g>
</svg>
